291188 901741 525
694459 946435 525
7751 817727 509
886106 906494 445
517246 655276 509
203388 437771 449
369474 731834 509
899808 963068 507
181906 914307 525
89477 588232 470
5247 350568 443
702862 996185 525
466119 873090 525
723141 996971 525
176213 968901 525
515031 838714 525
6338 754274 509
134439 804607 509
962453 996562 458
175640 516452 470
177361 874993 525
485281 793959 509
414393 709979 509
576933 991434 525
7984 946426 525
567543 712358 509
776504 935345 525
761868 843616 525
807000 960393 525
907979 951821 507
702817 986377 525
479022 749011 509
660909 777795 504
751652 988551 525
662414 864777 525
617266 769902 509
820522 931995 525
900813 939907 507
516045 589152 452
345418 690628 509
172565 802754 509
118222 417290 449
697569 892804 525
705895 768155 468
393507 623855 470
1987 613856 470
551088 866980 525
948683 974240 458
637082 712812 504
349564 789059 509
141832 212223 383
653475 734006 504
97785 221629 386
711474 716502 411
574648 997423 525
928340 994730 507
998261 999578 396
724689 916391 525
955060 963833 414
228809 320679 443
558662 763811 509
9595 975013 525
740212 752261 393
835951 861859 525
122320 154790 375
705199 976256 525
180753 735667 509
254914 402530 441
455576 920693 525
406572 556005 470
51689 569751 470
805845 974403 525
409882 767761 509
259984 351463 441
9618 997123 525
227714 679944 509
747997 898423 525
143736 318434 443
122997 238447 443
893912 941964 507
193611 338444 443
537876 689946 509
471989 488030 413
167105 583844 470
759177 770738 468
471994 563439 470
936996 949464 507
375019 858891 525
322578 791483 509
711820 796425 468
152204 539551 470
317682 597503 470
154752 282669 443
902614 946621 507
469512 828116 509
37269 635897 509
909841 916795 476
65895 235548 443
367933 383441 423
337804 361809 441
320880 355397 441
966383 994403 458
116046 155361 375
118959 211880 383
4814 148923 375
236524 765138 509
798721 943207 525
571422 886720 525
44031 884383 525
259630 454330 449
298971 744639 509
690869 888355 525
386246 873607 525
619050 841728 525
503967 651674 509
9097 939434 525
309265 613640 470
111131 828563 509
760096 828530 468
378138 814923 509
575073 883462 525
950334 954988 414
197276 504021 449
355676 483171 449
24201 691274 509
269053 528997 470
426407 548066 470
46187 74949 340
230890 905783 525
81035 578654 470
650500 811673 504
588111 719720 509
409426 820471 509
413484 694942 509
443536 866018 525
9639 999516 525
434691 707667 509
420811 835202 509
949134 957831 414
901681 959021 507
9995 976602 525
810710 929965 525
159065 728753 509
659258 816109 504
550542 617159 447
1520 318313 443
273638 372978 441
189216 910754 525
954777 955392 383
366789 773950 509
1 999999 525