1 10 20
100 200 125
201 210 89
900 1000 174
775340 379245 509
124524 74257 354
785966 759127 468
706437 232592 509
22102 253572 443
455780 184459 449
195985 886268 525
144922 293885 443
233803 582886 470
824100 158612 509
721025 906060 525
397135 349539 436
631914 648080 416
366250 488993 449
547727 924271 525
880516 379926 525
861014 568677 525
364688 652611 509
235712 803772 509
25464 320858 443
210021 415310 449
875680 900723 445
555043 930480 525
442038 508141 444
700041 694804 367
22951 863404 525
916053 98768 525
66973 568129 470
574202 759751 509
878588 509779 525
786463 505929 509
630054 138925 509
436339 884637 525
148655 381160 443
715002 220823 509
156153 36483 375
38798 852725 525
597576 448761 470
721293 20579 509
794047 844405 525
722802 909423 525
888963 353785 525
386684 133060 443
267706 12608 443
326165 177908 443
456907 978150 525
293740 103061 443
539413 988597 525
982699 954265 458
268238 1795 443
685015 350459 509
350920 36606 443
523879 529950 408
155092 344491 443
562873 130233 470
891402 16938 525
543214 774039 509
94485 584561 470
679422 591967 509
145350 971205 525
50876 657966 509
75295 270316 443
206111 172950 365
378472 956414 525
694588 996166 525
480809 136739 449
281488 958853 525
815903 664211 504
568450 738316 509
11287 753682 509
452159 786355 509
897442 93588 525
174019 411429 449
915019 489662 525
598247 142135 470
491565 293283 449
276253 719933 509
126900 346937 443
57061 441718 449
839590 195335 525
71416 345463 443
731416 835122 468
762649 248177 509
862083 586650 525
690668 521103 509
150463 943264 525
912432 591061 525
992838 591383 525
57222 534988 470
149523 687489 509
995004 988431 365
320504 597266 470
793385 138887 509
842635 383423 525
576391 125277 470
960764 580558 525
824860 438100 509
213251 865385 525
396255 959351 525
828475 385533 509
339267 819858 509
269508 837382 509
956903 387241 525
253187 44370 443
235205 727961 509
809247 976292 525
376572 520436 470
973824 848205 507
291435 4468 443
750935 593270 509
485009 424580 444
677529 475208 509
906688 163280 525
138810 254042 443
39467 510904 449
546222 462531 470
839066 360944 525
951795 22628 525
821021 34410 509
235222 65901 443
370770 392201 436
136334 675894 509
347137 772138 509
150298 787160 509
550479 214108 470
710632 36912 509
485948 520159 470
334561 887252 525
856319 490178 525
344940 85479 443
330543 486351 449
964163 565092 525
85642 752199 509
769942 977554 525
60692 608774 470
390170 36338 443
647064 667242 442
825632 859187 525
362908 752304 509
620478 79991 470
335158 433809 449
899320 936208 476
831063 60114 509
307348 62655 443
639173 72723 509
726844 67273 509
424355 432658 374
466361 502298 426
780702 445555 509
449215 331663 449
732598 411710 509
493569 587811 470
862487 285721 525
866037 405452 525
553075 61847 470
168961 534790 470
730367 806712 468
118831 211935 383
294440 974458 525
811601 421115 509
172061 381357 443
577971 105558 470
298784 988463 525
398168 349836 436
341524 253534 407
369307 714003 509
390045 858383 525
807479 536552 509
532899 82756 470
666065 988251 525
548671 601409 434
103340 124380 354
819921 265858 509
696076 525341 509
633348 627476 385
791045 526139 509
864361 918905 476
64061 240486 443
500881 677457 509
383015 712355 509
956605 84839 525
930234 637924 525
617547 844598 525
895489 801387 525